{
	"vectorControls":
	{
		"actions":
		[
			"move", // We can move.
			"rotate" // And we can rotate.
		],
		"buttons":
		{
			"W":
			[
				{
					"action": "move",
					"vector": {"x": 0.0, "y": 1.0}
				}
			],
			"A":
			[
				{
					"action": "move",
					"vector": {"x": -1.0, "y": 0.0}
				}
			],
			"S":
			[
				{
					"action": "move",
					"vector": {"x": 0.0, "y": -1.0}
				}
			],
			"D":
			[
				{
					"action": "move",
					"vector": {"x": 1.0, "y": 0.0}
				}
			],
			"Q":
			[
				{
					"action": "rotate",
					"vector": {"x": 1.0, "y": 0.0} // Only X is used by rotate.
				}
			],
			"E":
			[
				{
					"action": "rotate",
					"vector": {"x": -1.0, "y": 0.0} // Only X is used by rotate.
				}
			]
		}
	}
}
