{
	"views":
	[
		{
			"type": "registered",
			"registeredIndex": 0,
			"controlledActor": 0
		}
	],
	"actors":
	[
		{
			"extend": "Suttung"
		},
		{
			"extend": "Chesterfield",
			"components": { "Transform": { "position": { "x":52.5, "y":52.5 } } }
		},

		// ShadowCaster column
		{ "extend":"ShadowCaster", "components": { "Transform": { "position": { "x":7.0, "y":7.0 } } } },
		{ "extend":"ShadowCaster", "components": { "Transform": { "position": { "x":12.0, "y":7.0 } } } },
		{ "extend":"ShadowCaster", "components": { "Transform": { "position": { "x":17.0, "y":7.0 } } } },
		{ "extend":"ShadowCaster", "components": { "Transform": { "position": { "x":22.0, "y":7.0 } } } },
		{ "extend":"ShadowCaster", "components": { "Transform": { "position": { "x":27.0, "y":7.0 } } } },
		{ "extend":"ShadowCaster", "components": { "Transform": { "position": { "x":32.0, "y":7.0 } } } },
		{ "extend":"ShadowCaster", "components": { "Transform": { "position": { "x":37.0, "y":7.0 } } } },
		{ "extend":"ShadowCaster", "components": { "Transform": { "position": { "x":42.0, "y":7.0 } } } },
		{ "extend":"ShadowCaster", "components": { "Transform": { "position": { "x":47.0, "y":7.0 } } } },
		{ "extend":"ShadowCaster", "components": { "Transform": { "position": { "x":52.0, "y":7.0 } } } },
		{ "extend":"ShadowCaster", "components": { "Transform": { "position": { "x":57.0, "y":7.0 } } } },
		{ "extend":"ShadowCaster", "components": { "Transform": { "position": { "x":62.0, "y":7.0 } } } },
		{ "extend":"ShadowCaster", "components": { "Transform": { "position": { "x":67.0, "y":7.0 } } } },
		{ "extend":"ShadowCaster", "components": { "Transform": { "position": { "x":72.0, "y":7.0 } } } },
		{ "extend":"ShadowCaster", "components": { "Transform": { "position": { "x":77.0, "y":7.0 } } } },
		{ "extend":"ShadowCaster", "components": { "Transform": { "position": { "x":82.0, "y":7.0 } } } },
		{ "extend":"ShadowCaster", "components": { "Transform": { "position": { "x":85.0, "y":7.0 } } } },
		{ "extend":"ShadowCaster", "components": { "Transform": { "position": { "x":92.0, "y":7.0 } } } },
		{ "extend":"ShadowCaster", "components": { "Transform": { "position": { "x":97.0, "y":7.0 } } } },
		{ "extend":"ShadowCaster", "components": { "Transform": { "position": { "x":102.0, "y":7.0 } } } },

		// ShadowCaster column
		{ "extend":"ShadowCaster", "components": { "Transform": { "position": { "x":7.0, "y":12.0 } } } },
		{ "extend":"ShadowCaster", "components": { "Transform": { "position": { "x":12.0, "y":12.0 } } } },
		{ "extend":"ShadowCaster", "components": { "Transform": { "position": { "x":17.0, "y":12.0 } } } },
		{ "extend":"ShadowCaster", "components": { "Transform": { "position": { "x":22.0, "y":12.0 } } } },
		{ "extend":"ShadowCaster", "components": { "Transform": { "position": { "x":27.0, "y":12.0 } } } },
		{ "extend":"ShadowCaster", "components": { "Transform": { "position": { "x":32.0, "y":12.0 } } } },
		{ "extend":"ShadowCaster", "components": { "Transform": { "position": { "x":37.0, "y":12.0 } } } },
		{ "extend":"ShadowCaster", "components": { "Transform": { "position": { "x":42.0, "y":12.0 } } } },
		{ "extend":"ShadowCaster", "components": { "Transform": { "position": { "x":47.0, "y":12.0 } } } },
		{ "extend":"ShadowCaster", "components": { "Transform": { "position": { "x":52.0, "y":12.0 } } } },
		{ "extend":"ShadowCaster", "components": { "Transform": { "position": { "x":57.0, "y":12.0 } } } },
		{ "extend":"ShadowCaster", "components": { "Transform": { "position": { "x":62.0, "y":12.0 } } } },
		{ "extend":"ShadowCaster", "components": { "Transform": { "position": { "x":67.0, "y":12.0 } } } },
		{ "extend":"ShadowCaster", "components": { "Transform": { "position": { "x":72.0, "y":12.0 } } } },
		{ "extend":"ShadowCaster", "components": { "Transform": { "position": { "x":77.0, "y":12.0 } } } },
		{ "extend":"ShadowCaster", "components": { "Transform": { "position": { "x":82.0, "y":12.0 } } } },
		{ "extend":"ShadowCaster", "components": { "Transform": { "position": { "x":87.0, "y":12.0 } } } },
		{ "extend":"ShadowCaster", "components": { "Transform": { "position": { "x":92.0, "y":12.0 } } } },
		{ "extend":"ShadowCaster", "components": { "Transform": { "position": { "x":97.0, "y":12.0 } } } },
		{ "extend":"ShadowCaster", "components": { "Transform": { "position": { "x":102.0, "y":12.0 } } } },

		// ShadowCaster column
		{ "extend":"ShadowCaster", "components": { "Transform": { "position": { "x":7.0, "y":17.5 } } } },
		{ "extend":"ShadowCaster", "components": { "Transform": { "position": { "x":12.0, "y":17.5 } } } },
		{ "extend":"ShadowCaster", "components": { "Transform": { "position": { "x":17.0, "y":17.5 } } } },
		{ "extend":"ShadowCaster", "components": { "Transform": { "position": { "x":22.0, "y":17.5 } } } },
		{ "extend":"ShadowCaster", "components": { "Transform": { "position": { "x":27.0, "y":17.5 } } } },
		{ "extend":"ShadowCaster", "components": { "Transform": { "position": { "x":32.0, "y":17.5 } } } },
		{ "extend":"ShadowCaster", "components": { "Transform": { "position": { "x":37.0, "y":17.5 } } } },
		{ "extend":"ShadowCaster", "components": { "Transform": { "position": { "x":42.0, "y":17.5 } } } },
		{ "extend":"ShadowCaster", "components": { "Transform": { "position": { "x":47.0, "y":17.5 } } } },
		{ "extend":"ShadowCaster", "components": { "Transform": { "position": { "x":52.0, "y":17.5 } } } },
		{ "extend":"ShadowCaster", "components": { "Transform": { "position": { "x":57.0, "y":17.5 } } } },
		{ "extend":"ShadowCaster", "components": { "Transform": { "position": { "x":62.0, "y":17.5 } } } },
		{ "extend":"ShadowCaster", "components": { "Transform": { "position": { "x":67.0, "y":17.5 } } } },
		{ "extend":"ShadowCaster", "components": { "Transform": { "position": { "x":72.0, "y":17.5 } } } },
		{ "extend":"ShadowCaster", "components": { "Transform": { "position": { "x":77.0, "y":17.5 } } } },
		{ "extend":"ShadowCaster", "components": { "Transform": { "position": { "x":82.0, "y":17.5 } } } },
		{ "extend":"ShadowCaster", "components": { "Transform": { "position": { "x":87.0, "y":17.5 } } } },
		{ "extend":"ShadowCaster", "components": { "Transform": { "position": { "x":92.0, "y":17.5 } } } },
		{ "extend":"ShadowCaster", "components": { "Transform": { "position": { "x":97.0, "y":17.5 } } } },
		{ "extend":"ShadowCaster", "components": { "Transform": { "position": { "x":102.0, "y":17.5 } } } },

		// ShadowCaster column
		{ "extend":"ShadowCaster", "components": { "Transform": { "position": { "x":7.0, "y":22.5 } } } },
		{ "extend":"ShadowCaster", "components": { "Transform": { "position": { "x":12.0, "y":22.5 } } } },
		{ "extend":"ShadowCaster", "components": { "Transform": { "position": { "x":17.0, "y":22.5 } } } },
		{ "extend":"ShadowCaster", "components": { "Transform": { "position": { "x":22.0, "y":22.5 } } } },
		{ "extend":"ShadowCaster", "components": { "Transform": { "position": { "x":27.0, "y":22.5 } } } },
		{ "extend":"ShadowCaster", "components": { "Transform": { "position": { "x":32.0, "y":22.5 } } } },
		{ "extend":"ShadowCaster", "components": { "Transform": { "position": { "x":37.0, "y":22.5 } } } },
		{ "extend":"ShadowCaster", "components": { "Transform": { "position": { "x":42.0, "y":22.5 } } } },
		{ "extend":"ShadowCaster", "components": { "Transform": { "position": { "x":47.0, "y":22.5 } } } },
		{ "extend":"ShadowCaster", "components": { "Transform": { "position": { "x":52.0, "y":22.5 } } } },
		{ "extend":"ShadowCaster", "components": { "Transform": { "position": { "x":57.0, "y":22.5 } } } },
		{ "extend":"ShadowCaster", "components": { "Transform": { "position": { "x":62.0, "y":22.5 } } } },
		{ "extend":"ShadowCaster", "components": { "Transform": { "position": { "x":67.0, "y":22.5 } } } },
		{ "extend":"ShadowCaster", "components": { "Transform": { "position": { "x":72.0, "y":22.5 } } } },
		{ "extend":"ShadowCaster", "components": { "Transform": { "position": { "x":77.0, "y":22.5 } } } },
		{ "extend":"ShadowCaster", "components": { "Transform": { "position": { "x":82.0, "y":22.5 } } } },
		{ "extend":"ShadowCaster", "components": { "Transform": { "position": { "x":87.0, "y":22.5 } } } },
		{ "extend":"ShadowCaster", "components": { "Transform": { "position": { "x":92.0, "y":22.5 } } } },
		{ "extend":"ShadowCaster", "components": { "Transform": { "position": { "x":97.0, "y":22.5 } } } },
		{ "extend":"ShadowCaster", "components": { "Transform": { "position": { "x":102.0, "y":22.5 } } } },

		// ShadowCaster column
		{ "extend":"ShadowCaster", "components": { "Transform": { "position": { "x":7.0, "y":27.5 } } } },
		{ "extend":"ShadowCaster", "components": { "Transform": { "position": { "x":12.0, "y":27.5 } } } },
		{ "extend":"ShadowCaster", "components": { "Transform": { "position": { "x":17.0, "y":27.5 } } } },
		{ "extend":"ShadowCaster", "components": { "Transform": { "position": { "x":22.0, "y":27.5 } } } },
		{ "extend":"ShadowCaster", "components": { "Transform": { "position": { "x":27.0, "y":27.5 } } } },
		{ "extend":"ShadowCaster", "components": { "Transform": { "position": { "x":32.0, "y":27.5 } } } },
		{ "extend":"ShadowCaster", "components": { "Transform": { "position": { "x":37.0, "y":27.5 } } } },
		{ "extend":"ShadowCaster", "components": { "Transform": { "position": { "x":42.0, "y":27.5 } } } },
		{ "extend":"ShadowCaster", "components": { "Transform": { "position": { "x":47.0, "y":27.5 } } } },
		{ "extend":"ShadowCaster", "components": { "Transform": { "position": { "x":52.0, "y":27.5 } } } },
		{ "extend":"ShadowCaster", "components": { "Transform": { "position": { "x":57.0, "y":27.5 } } } },
		{ "extend":"ShadowCaster", "components": { "Transform": { "position": { "x":62.0, "y":27.5 } } } },
		{ "extend":"ShadowCaster", "components": { "Transform": { "position": { "x":67.0, "y":27.5 } } } },
		{ "extend":"ShadowCaster", "components": { "Transform": { "position": { "x":72.0, "y":27.5 } } } },
		{ "extend":"ShadowCaster", "components": { "Transform": { "position": { "x":77.0, "y":27.5 } } } },
		{ "extend":"ShadowCaster", "components": { "Transform": { "position": { "x":82.0, "y":27.5 } } } },
		{ "extend":"ShadowCaster", "components": { "Transform": { "position": { "x":87.0, "y":27.5 } } } },
		{ "extend":"ShadowCaster", "components": { "Transform": { "position": { "x":92.0, "y":27.5 } } } },
		{ "extend":"ShadowCaster", "components": { "Transform": { "position": { "x":97.0, "y":27.5 } } } },
		{ "extend":"ShadowCaster", "components": { "Transform": { "position": { "x":102.0, "y":27.5 } } } },

		// ShadowCaster column
		{ "extend":"ShadowCaster", "components": { "Transform": { "position": { "x":7.0, "y":32.5 } } } },
		{ "extend":"ShadowCaster", "components": { "Transform": { "position": { "x":12.0, "y":32.5 } } } },
		{ "extend":"ShadowCaster", "components": { "Transform": { "position": { "x":17.0, "y":32.5 } } } },
		{ "extend":"ShadowCaster", "components": { "Transform": { "position": { "x":22.0, "y":32.5 } } } },
		{ "extend":"ShadowCaster", "components": { "Transform": { "position": { "x":27.0, "y":32.5 } } } },
		{ "extend":"ShadowCaster", "components": { "Transform": { "position": { "x":32.0, "y":32.5 } } } },
		{ "extend":"ShadowCaster", "components": { "Transform": { "position": { "x":37.0, "y":32.5 } } } },
		{ "extend":"ShadowCaster", "components": { "Transform": { "position": { "x":42.0, "y":32.5 } } } },
		{ "extend":"ShadowCaster", "components": { "Transform": { "position": { "x":47.0, "y":32.5 } } } },
		{ "extend":"ShadowCaster", "components": { "Transform": { "position": { "x":52.0, "y":32.5 } } } },
		{ "extend":"ShadowCaster", "components": { "Transform": { "position": { "x":57.0, "y":32.5 } } } },
		{ "extend":"ShadowCaster", "components": { "Transform": { "position": { "x":62.0, "y":32.5 } } } },
		{ "extend":"ShadowCaster", "components": { "Transform": { "position": { "x":67.0, "y":32.5 } } } },
		{ "extend":"ShadowCaster", "components": { "Transform": { "position": { "x":72.0, "y":32.5 } } } },
		{ "extend":"ShadowCaster", "components": { "Transform": { "position": { "x":77.0, "y":32.5 } } } },
		{ "extend":"ShadowCaster", "components": { "Transform": { "position": { "x":82.0, "y":32.5 } } } },
		{ "extend":"ShadowCaster", "components": { "Transform": { "position": { "x":87.0, "y":32.5 } } } },
		{ "extend":"ShadowCaster", "components": { "Transform": { "position": { "x":92.0, "y":32.5 } } } },
		{ "extend":"ShadowCaster", "components": { "Transform": { "position": { "x":97.0, "y":32.5 } } } },
		{ "extend":"ShadowCaster", "components": { "Transform": { "position": { "x":102.0, "y":32.5 } } } },

		// ShadowCaster column
		{ "extend":"ShadowCaster", "components": { "Transform": { "position": { "x":7.0, "y":37.5 } } } },
		{ "extend":"ShadowCaster", "components": { "Transform": { "position": { "x":12.0, "y":37.5 } } } },
		{ "extend":"ShadowCaster", "components": { "Transform": { "position": { "x":17.0, "y":37.5 } } } },
		{ "extend":"ShadowCaster", "components": { "Transform": { "position": { "x":22.0, "y":37.5 } } } },
		{ "extend":"ShadowCaster", "components": { "Transform": { "position": { "x":27.0, "y":37.5 } } } },
		{ "extend":"ShadowCaster", "components": { "Transform": { "position": { "x":32.0, "y":37.5 } } } },
		{ "extend":"ShadowCaster", "components": { "Transform": { "position": { "x":37.0, "y":37.5 } } } },
		{ "extend":"ShadowCaster", "components": { "Transform": { "position": { "x":42.0, "y":37.5 } } } },
		{ "extend":"ShadowCaster", "components": { "Transform": { "position": { "x":47.0, "y":37.5 } } } },
		{ "extend":"ShadowCaster", "components": { "Transform": { "position": { "x":52.0, "y":37.5 } } } },
		{ "extend":"ShadowCaster", "components": { "Transform": { "position": { "x":57.0, "y":37.5 } } } },
		{ "extend":"ShadowCaster", "components": { "Transform": { "position": { "x":62.0, "y":37.5 } } } },
		{ "extend":"ShadowCaster", "components": { "Transform": { "position": { "x":67.0, "y":37.5 } } } },
		{ "extend":"ShadowCaster", "components": { "Transform": { "position": { "x":72.0, "y":37.5 } } } },
		{ "extend":"ShadowCaster", "components": { "Transform": { "position": { "x":77.0, "y":37.5 } } } },
		{ "extend":"ShadowCaster", "components": { "Transform": { "position": { "x":82.0, "y":37.5 } } } },
		{ "extend":"ShadowCaster", "components": { "Transform": { "position": { "x":87.0, "y":37.5 } } } },
		{ "extend":"ShadowCaster", "components": { "Transform": { "position": { "x":92.0, "y":37.5 } } } },
		{ "extend":"ShadowCaster", "components": { "Transform": { "position": { "x":97.0, "y":37.5 } } } },
		{ "extend":"ShadowCaster", "components": { "Transform": { "position": { "x":102.0, "y":37.5 } } } },

		// ShadowCaster column
		{ "extend":"ShadowCaster", "components": { "Transform": { "position": { "x":7.0, "y":42.5 } } } },
		{ "extend":"ShadowCaster", "components": { "Transform": { "position": { "x":12.0, "y":42.5 } } } },
		{ "extend":"ShadowCaster", "components": { "Transform": { "position": { "x":17.0, "y":42.5 } } } },
		{ "extend":"ShadowCaster", "components": { "Transform": { "position": { "x":22.0, "y":42.5 } } } },
		{ "extend":"ShadowCaster", "components": { "Transform": { "position": { "x":27.0, "y":42.5 } } } },
		{ "extend":"ShadowCaster", "components": { "Transform": { "position": { "x":32.0, "y":42.5 } } } },
		{ "extend":"ShadowCaster", "components": { "Transform": { "position": { "x":37.0, "y":42.5 } } } },
		{ "extend":"ShadowCaster", "components": { "Transform": { "position": { "x":42.0, "y":42.5 } } } },
		{ "extend":"ShadowCaster", "components": { "Transform": { "position": { "x":47.0, "y":42.5 } } } },
		{ "extend":"ShadowCaster", "components": { "Transform": { "position": { "x":52.0, "y":42.5 } } } },
		{ "extend":"ShadowCaster", "components": { "Transform": { "position": { "x":57.0, "y":42.5 } } } },
		{ "extend":"ShadowCaster", "components": { "Transform": { "position": { "x":62.0, "y":42.5 } } } },
		{ "extend":"ShadowCaster", "components": { "Transform": { "position": { "x":67.0, "y":42.5 } } } },
		{ "extend":"ShadowCaster", "components": { "Transform": { "position": { "x":72.0, "y":42.5 } } } },
		{ "extend":"ShadowCaster", "components": { "Transform": { "position": { "x":77.0, "y":42.5 } } } },
		{ "extend":"ShadowCaster", "components": { "Transform": { "position": { "x":82.0, "y":42.5 } } } },
		{ "extend":"ShadowCaster", "components": { "Transform": { "position": { "x":87.0, "y":42.5 } } } },
		{ "extend":"ShadowCaster", "components": { "Transform": { "position": { "x":92.0, "y":42.5 } } } },
		{ "extend":"ShadowCaster", "components": { "Transform": { "position": { "x":97.0, "y":42.5 } } } },
		{ "extend":"ShadowCaster", "components": { "Transform": { "position": { "x":102.0, "y":42.5 } } } },

		// ShadowCaster column
		{ "extend":"ShadowCaster", "components": { "Transform": { "position": { "x":7.0, "y":47.5 } } } },
		{ "extend":"ShadowCaster", "components": { "Transform": { "position": { "x":12.0, "y":47.5 } } } },
		{ "extend":"ShadowCaster", "components": { "Transform": { "position": { "x":17.0, "y":47.5 } } } },
		{ "extend":"ShadowCaster", "components": { "Transform": { "position": { "x":22.0, "y":47.5 } } } },
		{ "extend":"ShadowCaster", "components": { "Transform": { "position": { "x":27.0, "y":47.5 } } } },
		{ "extend":"ShadowCaster", "components": { "Transform": { "position": { "x":32.0, "y":47.5 } } } },
		{ "extend":"ShadowCaster", "components": { "Transform": { "position": { "x":37.0, "y":47.5 } } } },
		{ "extend":"ShadowCaster", "components": { "Transform": { "position": { "x":42.0, "y":47.5 } } } },
		{ "extend":"ShadowCaster", "components": { "Transform": { "position": { "x":47.0, "y":47.5 } } } },
		{ "extend":"ShadowCaster", "components": { "Transform": { "position": { "x":52.0, "y":47.5 } } } },
		{ "extend":"ShadowCaster", "components": { "Transform": { "position": { "x":57.0, "y":47.5 } } } },
		{ "extend":"ShadowCaster", "components": { "Transform": { "position": { "x":62.0, "y":47.5 } } } },
		{ "extend":"ShadowCaster", "components": { "Transform": { "position": { "x":67.0, "y":47.5 } } } },
		{ "extend":"ShadowCaster", "components": { "Transform": { "position": { "x":72.0, "y":47.5 } } } },
		{ "extend":"ShadowCaster", "components": { "Transform": { "position": { "x":77.0, "y":47.5 } } } },
		{ "extend":"ShadowCaster", "components": { "Transform": { "position": { "x":82.0, "y":47.5 } } } },
		{ "extend":"ShadowCaster", "components": { "Transform": { "position": { "x":87.0, "y":47.5 } } } },
		{ "extend":"ShadowCaster", "components": { "Transform": { "position": { "x":92.0, "y":47.5 } } } },
		{ "extend":"ShadowCaster", "components": { "Transform": { "position": { "x":97.0, "y":47.5 } } } },
		{ "extend":"ShadowCaster", "components": { "Transform": { "position": { "x":102.0, "y":47.5 } } } },

		// ShadowCaster column
		{ "extend":"ShadowCaster", "components": { "Transform": { "position": { "x":7.0, "y":52.5 } } } },
		{ "extend":"ShadowCaster", "components": { "Transform": { "position": { "x":12.0, "y":52.5 } } } },
		{ "extend":"ShadowCaster", "components": { "Transform": { "position": { "x":17.0, "y":52.5 } } } },
		{ "extend":"ShadowCaster", "components": { "Transform": { "position": { "x":22.0, "y":52.5 } } } },
		{ "extend":"ShadowCaster", "components": { "Transform": { "position": { "x":27.0, "y":52.5 } } } },
		{ "extend":"ShadowCaster", "components": { "Transform": { "position": { "x":32.0, "y":52.5 } } } },
		{ "extend":"ShadowCaster", "components": { "Transform": { "position": { "x":37.0, "y":52.5 } } } },
		{ "extend":"ShadowCaster", "components": { "Transform": { "position": { "x":42.0, "y":52.5 } } } },
		{ "extend":"ShadowCaster", "components": { "Transform": { "position": { "x":47.0, "y":52.5 } } } },
		{ "extend":"ShadowCaster", "components": { "Transform": { "position": { "x":52.0, "y":52.5 } } } },
		{ "extend":"ShadowCaster", "components": { "Transform": { "position": { "x":57.0, "y":52.5 } } } },
		{ "extend":"ShadowCaster", "components": { "Transform": { "position": { "x":62.0, "y":52.5 } } } },
		{ "extend":"ShadowCaster", "components": { "Transform": { "position": { "x":67.0, "y":52.5 } } } },
		{ "extend":"ShadowCaster", "components": { "Transform": { "position": { "x":72.0, "y":52.5 } } } },
		{ "extend":"ShadowCaster", "components": { "Transform": { "position": { "x":77.0, "y":52.5 } } } },
		{ "extend":"ShadowCaster", "components": { "Transform": { "position": { "x":82.0, "y":52.5 } } } },
		{ "extend":"ShadowCaster", "components": { "Transform": { "position": { "x":87.0, "y":52.5 } } } },
		{ "extend":"ShadowCaster", "components": { "Transform": { "position": { "x":92.0, "y":52.5 } } } },
		{ "extend":"ShadowCaster", "components": { "Transform": { "position": { "x":97.0, "y":52.5 } } } },
		{ "extend":"ShadowCaster", "components": { "Transform": { "position": { "x":102.0, "y":52.5 } } } },

		// ShadowCaster column
		{ "extend":"ShadowCaster", "components": { "Transform": { "position": { "x":7.0, "y":57.5 } } } },
		{ "extend":"ShadowCaster", "components": { "Transform": { "position": { "x":12.0, "y":57.5 } } } },
		{ "extend":"ShadowCaster", "components": { "Transform": { "position": { "x":17.0, "y":57.5 } } } },
		{ "extend":"ShadowCaster", "components": { "Transform": { "position": { "x":22.0, "y":57.5 } } } },
		{ "extend":"ShadowCaster", "components": { "Transform": { "position": { "x":27.0, "y":57.5 } } } },
		{ "extend":"ShadowCaster", "components": { "Transform": { "position": { "x":32.0, "y":57.5 } } } },
		{ "extend":"ShadowCaster", "components": { "Transform": { "position": { "x":37.0, "y":57.5 } } } },
		{ "extend":"ShadowCaster", "components": { "Transform": { "position": { "x":42.0, "y":57.5 } } } },
		{ "extend":"ShadowCaster", "components": { "Transform": { "position": { "x":47.0, "y":57.5 } } } },
		{ "extend":"ShadowCaster", "components": { "Transform": { "position": { "x":52.0, "y":57.5 } } } },
		{ "extend":"ShadowCaster", "components": { "Transform": { "position": { "x":57.0, "y":57.5 } } } },
		{ "extend":"ShadowCaster", "components": { "Transform": { "position": { "x":62.0, "y":57.5 } } } },
		{ "extend":"ShadowCaster", "components": { "Transform": { "position": { "x":67.0, "y":57.5 } } } },
		{ "extend":"ShadowCaster", "components": { "Transform": { "position": { "x":72.0, "y":57.5 } } } },
		{ "extend":"ShadowCaster", "components": { "Transform": { "position": { "x":77.0, "y":57.5 } } } },
		{ "extend":"ShadowCaster", "components": { "Transform": { "position": { "x":82.0, "y":57.5 } } } },
		{ "extend":"ShadowCaster", "components": { "Transform": { "position": { "x":87.0, "y":57.5 } } } },
		{ "extend":"ShadowCaster", "components": { "Transform": { "position": { "x":92.0, "y":57.5 } } } },
		{ "extend":"ShadowCaster", "components": { "Transform": { "position": { "x":97.0, "y":57.5 } } } },
		{ "extend":"ShadowCaster", "components": { "Transform": { "position": { "x":102.0, "y":57.5 } } } },

		// ShadowCaster column
		{ "extend":"ShadowCaster", "components": { "Transform": { "position": { "x":7.0, "y":62.5 } } } },
		{ "extend":"ShadowCaster", "components": { "Transform": { "position": { "x":12.0, "y":62.5 } } } },
		{ "extend":"ShadowCaster", "components": { "Transform": { "position": { "x":17.0, "y":62.5 } } } },
		{ "extend":"ShadowCaster", "components": { "Transform": { "position": { "x":22.0, "y":62.5 } } } },
		{ "extend":"ShadowCaster", "components": { "Transform": { "position": { "x":27.0, "y":62.5 } } } },
		{ "extend":"ShadowCaster", "components": { "Transform": { "position": { "x":32.0, "y":62.5 } } } },
		{ "extend":"ShadowCaster", "components": { "Transform": { "position": { "x":37.0, "y":62.5 } } } },
		{ "extend":"ShadowCaster", "components": { "Transform": { "position": { "x":42.0, "y":62.5 } } } },
		{ "extend":"ShadowCaster", "components": { "Transform": { "position": { "x":47.0, "y":62.5 } } } },
		{ "extend":"ShadowCaster", "components": { "Transform": { "position": { "x":52.0, "y":62.5 } } } },
		{ "extend":"ShadowCaster", "components": { "Transform": { "position": { "x":57.0, "y":62.5 } } } },
		{ "extend":"ShadowCaster", "components": { "Transform": { "position": { "x":62.0, "y":62.5 } } } },
		{ "extend":"ShadowCaster", "components": { "Transform": { "position": { "x":67.0, "y":62.5 } } } },
		{ "extend":"ShadowCaster", "components": { "Transform": { "position": { "x":72.0, "y":62.5 } } } },
		{ "extend":"ShadowCaster", "components": { "Transform": { "position": { "x":77.0, "y":62.5 } } } },
		{ "extend":"ShadowCaster", "components": { "Transform": { "position": { "x":82.0, "y":62.5 } } } },
		{ "extend":"ShadowCaster", "components": { "Transform": { "position": { "x":87.0, "y":62.5 } } } },
		{ "extend":"ShadowCaster", "components": { "Transform": { "position": { "x":92.0, "y":62.5 } } } },
		{ "extend":"ShadowCaster", "components": { "Transform": { "position": { "x":97.0, "y":62.5 } } } },
		{ "extend":"ShadowCaster", "components": { "Transform": { "position": { "x":102.0, "y":62.5 } } } },

		// ShadowCaster column
		{ "extend":"ShadowCaster", "components": { "Transform": { "position": { "x":7.0, "y":67.5 } } } },
		{ "extend":"ShadowCaster", "components": { "Transform": { "position": { "x":12.0, "y":67.5 } } } },
		{ "extend":"ShadowCaster", "components": { "Transform": { "position": { "x":17.0, "y":67.5 } } } },
		{ "extend":"ShadowCaster", "components": { "Transform": { "position": { "x":22.0, "y":67.5 } } } },
		{ "extend":"ShadowCaster", "components": { "Transform": { "position": { "x":27.0, "y":67.5 } } } },
		{ "extend":"ShadowCaster", "components": { "Transform": { "position": { "x":32.0, "y":67.5 } } } },
		{ "extend":"ShadowCaster", "components": { "Transform": { "position": { "x":37.0, "y":67.5 } } } },
		{ "extend":"ShadowCaster", "components": { "Transform": { "position": { "x":42.0, "y":67.5 } } } },
		{ "extend":"ShadowCaster", "components": { "Transform": { "position": { "x":47.0, "y":67.5 } } } },
		{ "extend":"ShadowCaster", "components": { "Transform": { "position": { "x":52.0, "y":67.5 } } } },
		{ "extend":"ShadowCaster", "components": { "Transform": { "position": { "x":57.0, "y":67.5 } } } },
		{ "extend":"ShadowCaster", "components": { "Transform": { "position": { "x":62.0, "y":67.5 } } } },
		{ "extend":"ShadowCaster", "components": { "Transform": { "position": { "x":67.0, "y":67.5 } } } },
		{ "extend":"ShadowCaster", "components": { "Transform": { "position": { "x":72.0, "y":67.5 } } } },
		{ "extend":"ShadowCaster", "components": { "Transform": { "position": { "x":77.0, "y":67.5 } } } },
		{ "extend":"ShadowCaster", "components": { "Transform": { "position": { "x":82.0, "y":67.5 } } } },
		{ "extend":"ShadowCaster", "components": { "Transform": { "position": { "x":87.0, "y":67.5 } } } },
		{ "extend":"ShadowCaster", "components": { "Transform": { "position": { "x":92.0, "y":67.5 } } } },
		{ "extend":"ShadowCaster", "components": { "Transform": { "position": { "x":97.0, "y":67.5 } } } },
		{ "extend":"ShadowCaster", "components": { "Transform": { "position": { "x":102.0, "y":67.5 } } } },

		// ShadowCaster column
		{ "extend":"ShadowCaster", "components": { "Transform": { "position": { "x":7.0, "y":72.5 } } } },
		{ "extend":"ShadowCaster", "components": { "Transform": { "position": { "x":12.0, "y":72.5 } } } },
		{ "extend":"ShadowCaster", "components": { "Transform": { "position": { "x":17.0, "y":72.5 } } } },
		{ "extend":"ShadowCaster", "components": { "Transform": { "position": { "x":22.0, "y":72.5 } } } },
		{ "extend":"ShadowCaster", "components": { "Transform": { "position": { "x":27.0, "y":72.5 } } } },
		{ "extend":"ShadowCaster", "components": { "Transform": { "position": { "x":32.0, "y":72.5 } } } },
		{ "extend":"ShadowCaster", "components": { "Transform": { "position": { "x":37.0, "y":72.5 } } } },
		{ "extend":"ShadowCaster", "components": { "Transform": { "position": { "x":42.0, "y":72.5 } } } },
		{ "extend":"ShadowCaster", "components": { "Transform": { "position": { "x":47.0, "y":72.5 } } } },
		{ "extend":"ShadowCaster", "components": { "Transform": { "position": { "x":52.0, "y":72.5 } } } },
		{ "extend":"ShadowCaster", "components": { "Transform": { "position": { "x":57.0, "y":72.5 } } } },
		{ "extend":"ShadowCaster", "components": { "Transform": { "position": { "x":62.0, "y":72.5 } } } },
		{ "extend":"ShadowCaster", "components": { "Transform": { "position": { "x":67.0, "y":72.5 } } } },
		{ "extend":"ShadowCaster", "components": { "Transform": { "position": { "x":72.0, "y":72.5 } } } },
		{ "extend":"ShadowCaster", "components": { "Transform": { "position": { "x":77.0, "y":72.5 } } } },
		{ "extend":"ShadowCaster", "components": { "Transform": { "position": { "x":82.0, "y":72.5 } } } },
		{ "extend":"ShadowCaster", "components": { "Transform": { "position": { "x":87.0, "y":72.5 } } } },
		{ "extend":"ShadowCaster", "components": { "Transform": { "position": { "x":92.0, "y":72.5 } } } },
		{ "extend":"ShadowCaster", "components": { "Transform": { "position": { "x":97.0, "y":72.5 } } } },
		{ "extend":"ShadowCaster", "components": { "Transform": { "position": { "x":102.0, "y":72.5 } } } },

		// ShadowCaster column
		{ "extend":"ShadowCaster", "components": { "Transform": { "position": { "x":7.0, "y":77.5 } } } },
		{ "extend":"ShadowCaster", "components": { "Transform": { "position": { "x":12.0, "y":77.5 } } } },
		{ "extend":"ShadowCaster", "components": { "Transform": { "position": { "x":17.0, "y":77.5 } } } },
		{ "extend":"ShadowCaster", "components": { "Transform": { "position": { "x":22.0, "y":77.5 } } } },
		{ "extend":"ShadowCaster", "components": { "Transform": { "position": { "x":27.0, "y":77.5 } } } },
		{ "extend":"ShadowCaster", "components": { "Transform": { "position": { "x":32.0, "y":77.5 } } } },
		{ "extend":"ShadowCaster", "components": { "Transform": { "position": { "x":37.0, "y":77.5 } } } },
		{ "extend":"ShadowCaster", "components": { "Transform": { "position": { "x":42.0, "y":77.5 } } } },
		{ "extend":"ShadowCaster", "components": { "Transform": { "position": { "x":47.0, "y":77.5 } } } },
		{ "extend":"ShadowCaster", "components": { "Transform": { "position": { "x":52.0, "y":77.5 } } } },
		{ "extend":"ShadowCaster", "components": { "Transform": { "position": { "x":57.0, "y":77.5 } } } },
		{ "extend":"ShadowCaster", "components": { "Transform": { "position": { "x":62.0, "y":77.5 } } } },
		{ "extend":"ShadowCaster", "components": { "Transform": { "position": { "x":67.0, "y":77.5 } } } },
		{ "extend":"ShadowCaster", "components": { "Transform": { "position": { "x":72.0, "y":77.5 } } } },
		{ "extend":"ShadowCaster", "components": { "Transform": { "position": { "x":77.0, "y":77.5 } } } },
		{ "extend":"ShadowCaster", "components": { "Transform": { "position": { "x":82.0, "y":77.5 } } } },
		{ "extend":"ShadowCaster", "components": { "Transform": { "position": { "x":87.0, "y":77.5 } } } },
		{ "extend":"ShadowCaster", "components": { "Transform": { "position": { "x":92.0, "y":77.5 } } } },
		{ "extend":"ShadowCaster", "components": { "Transform": { "position": { "x":97.0, "y":77.5 } } } },
		{ "extend":"ShadowCaster", "components": { "Transform": { "position": { "x":102.0, "y":77.5 } } } },

		// ShadowCaster column
		{ "extend":"ShadowCaster", "components": { "Transform": { "position": { "x":7.0, "y":82.5 } } } },
		{ "extend":"ShadowCaster", "components": { "Transform": { "position": { "x":12.0, "y":82.5 } } } },
		{ "extend":"ShadowCaster", "components": { "Transform": { "position": { "x":17.0, "y":82.5 } } } },
		{ "extend":"ShadowCaster", "components": { "Transform": { "position": { "x":22.0, "y":82.5 } } } },
		{ "extend":"ShadowCaster", "components": { "Transform": { "position": { "x":27.0, "y":82.5 } } } },
		{ "extend":"ShadowCaster", "components": { "Transform": { "position": { "x":32.0, "y":82.5 } } } },
		{ "extend":"ShadowCaster", "components": { "Transform": { "position": { "x":37.0, "y":82.5 } } } },
		{ "extend":"ShadowCaster", "components": { "Transform": { "position": { "x":42.0, "y":82.5 } } } },
		{ "extend":"ShadowCaster", "components": { "Transform": { "position": { "x":47.0, "y":82.5 } } } },
		{ "extend":"ShadowCaster", "components": { "Transform": { "position": { "x":52.0, "y":82.5 } } } },
		{ "extend":"ShadowCaster", "components": { "Transform": { "position": { "x":57.0, "y":82.5 } } } },
		{ "extend":"ShadowCaster", "components": { "Transform": { "position": { "x":62.0, "y":82.5 } } } },
		{ "extend":"ShadowCaster", "components": { "Transform": { "position": { "x":67.0, "y":82.5 } } } },
		{ "extend":"ShadowCaster", "components": { "Transform": { "position": { "x":72.0, "y":82.5 } } } },
		{ "extend":"ShadowCaster", "components": { "Transform": { "position": { "x":77.0, "y":82.5 } } } },
		{ "extend":"ShadowCaster", "components": { "Transform": { "position": { "x":82.0, "y":82.5 } } } },
		{ "extend":"ShadowCaster", "components": { "Transform": { "position": { "x":87.0, "y":82.5 } } } },
		{ "extend":"ShadowCaster", "components": { "Transform": { "position": { "x":92.0, "y":82.5 } } } },
		{ "extend":"ShadowCaster", "components": { "Transform": { "position": { "x":97.0, "y":82.5 } } } },
		{ "extend":"ShadowCaster", "components": { "Transform": { "position": { "x":102.0, "y":82.5 } } } },

		// ShadowCaster column
		{ "extend":"ShadowCaster", "components": { "Transform": { "position": { "x":7.0, "y":87.5 } } } },
		{ "extend":"ShadowCaster", "components": { "Transform": { "position": { "x":12.0, "y":87.5 } } } },
		{ "extend":"ShadowCaster", "components": { "Transform": { "position": { "x":17.0, "y":87.5 } } } },
		{ "extend":"ShadowCaster", "components": { "Transform": { "position": { "x":22.0, "y":87.5 } } } },
		{ "extend":"ShadowCaster", "components": { "Transform": { "position": { "x":27.0, "y":87.5 } } } },
		{ "extend":"ShadowCaster", "components": { "Transform": { "position": { "x":32.0, "y":87.5 } } } },
		{ "extend":"ShadowCaster", "components": { "Transform": { "position": { "x":37.0, "y":87.5 } } } },
		{ "extend":"ShadowCaster", "components": { "Transform": { "position": { "x":42.0, "y":87.5 } } } },
		{ "extend":"ShadowCaster", "components": { "Transform": { "position": { "x":47.0, "y":87.5 } } } },
		{ "extend":"ShadowCaster", "components": { "Transform": { "position": { "x":52.0, "y":87.5 } } } },
		{ "extend":"ShadowCaster", "components": { "Transform": { "position": { "x":57.0, "y":87.5 } } } },
		{ "extend":"ShadowCaster", "components": { "Transform": { "position": { "x":62.0, "y":87.5 } } } },
		{ "extend":"ShadowCaster", "components": { "Transform": { "position": { "x":67.0, "y":87.5 } } } },
		{ "extend":"ShadowCaster", "components": { "Transform": { "position": { "x":72.0, "y":87.5 } } } },
		{ "extend":"ShadowCaster", "components": { "Transform": { "position": { "x":77.0, "y":87.5 } } } },
		{ "extend":"ShadowCaster", "components": { "Transform": { "position": { "x":82.0, "y":87.5 } } } },
		{ "extend":"ShadowCaster", "components": { "Transform": { "position": { "x":87.0, "y":87.5 } } } },
		{ "extend":"ShadowCaster", "components": { "Transform": { "position": { "x":92.0, "y":87.5 } } } },
		{ "extend":"ShadowCaster", "components": { "Transform": { "position": { "x":97.0, "y":87.5 } } } },
		{ "extend":"ShadowCaster", "components": { "Transform": { "position": { "x":102.0, "y":87.5 } } } },

		// ShadowCaster column
		{ "extend":"ShadowCaster", "components": { "Transform": { "position": { "x":7.0, "y":92.5 } } } },
		{ "extend":"ShadowCaster", "components": { "Transform": { "position": { "x":12.0, "y":92.5 } } } },
		{ "extend":"ShadowCaster", "components": { "Transform": { "position": { "x":17.0, "y":92.5 } } } },
		{ "extend":"ShadowCaster", "components": { "Transform": { "position": { "x":22.0, "y":92.5 } } } },
		{ "extend":"ShadowCaster", "components": { "Transform": { "position": { "x":27.0, "y":92.5 } } } },
		{ "extend":"ShadowCaster", "components": { "Transform": { "position": { "x":32.0, "y":92.5 } } } },
		{ "extend":"ShadowCaster", "components": { "Transform": { "position": { "x":37.0, "y":92.5 } } } },
		{ "extend":"ShadowCaster", "components": { "Transform": { "position": { "x":42.0, "y":92.5 } } } },
		{ "extend":"ShadowCaster", "components": { "Transform": { "position": { "x":47.0, "y":92.5 } } } },
		{ "extend":"ShadowCaster", "components": { "Transform": { "position": { "x":52.0, "y":92.5 } } } },
		{ "extend":"ShadowCaster", "components": { "Transform": { "position": { "x":57.0, "y":92.5 } } } },
		{ "extend":"ShadowCaster", "components": { "Transform": { "position": { "x":62.0, "y":92.5 } } } },
		{ "extend":"ShadowCaster", "components": { "Transform": { "position": { "x":67.0, "y":92.5 } } } },
		{ "extend":"ShadowCaster", "components": { "Transform": { "position": { "x":72.0, "y":92.5 } } } },
		{ "extend":"ShadowCaster", "components": { "Transform": { "position": { "x":77.0, "y":92.5 } } } },
		{ "extend":"ShadowCaster", "components": { "Transform": { "position": { "x":82.0, "y":92.5 } } } },
		{ "extend":"ShadowCaster", "components": { "Transform": { "position": { "x":87.0, "y":92.5 } } } },
		{ "extend":"ShadowCaster", "components": { "Transform": { "position": { "x":92.0, "y":92.5 } } } },
		{ "extend":"ShadowCaster", "components": { "Transform": { "position": { "x":97.0, "y":92.5 } } } },
		{ "extend":"ShadowCaster", "components": { "Transform": { "position": { "x":102.0, "y":92.5 } } } },

		// ShadowCaster column
		{ "extend":"ShadowCaster", "components": { "Transform": { "position": { "x":7.0, "y":97.5 } } } },
		{ "extend":"ShadowCaster", "components": { "Transform": { "position": { "x":12.0, "y":97.5 } } } },
		{ "extend":"ShadowCaster", "components": { "Transform": { "position": { "x":17.0, "y":97.5 } } } },
		{ "extend":"ShadowCaster", "components": { "Transform": { "position": { "x":22.0, "y":97.5 } } } },
		{ "extend":"ShadowCaster", "components": { "Transform": { "position": { "x":27.0, "y":97.5 } } } },
		{ "extend":"ShadowCaster", "components": { "Transform": { "position": { "x":32.0, "y":97.5 } } } },
		{ "extend":"ShadowCaster", "components": { "Transform": { "position": { "x":37.0, "y":97.5 } } } },
		{ "extend":"ShadowCaster", "components": { "Transform": { "position": { "x":42.0, "y":97.5 } } } },
		{ "extend":"ShadowCaster", "components": { "Transform": { "position": { "x":47.0, "y":97.5 } } } },
		{ "extend":"ShadowCaster", "components": { "Transform": { "position": { "x":52.0, "y":97.5 } } } },
		{ "extend":"ShadowCaster", "components": { "Transform": { "position": { "x":57.0, "y":97.5 } } } },
		{ "extend":"ShadowCaster", "components": { "Transform": { "position": { "x":62.0, "y":97.5 } } } },
		{ "extend":"ShadowCaster", "components": { "Transform": { "position": { "x":67.0, "y":97.5 } } } },
		{ "extend":"ShadowCaster", "components": { "Transform": { "position": { "x":72.0, "y":97.5 } } } },
		{ "extend":"ShadowCaster", "components": { "Transform": { "position": { "x":77.0, "y":97.5 } } } },
		{ "extend":"ShadowCaster", "components": { "Transform": { "position": { "x":82.0, "y":97.5 } } } },
		{ "extend":"ShadowCaster", "components": { "Transform": { "position": { "x":87.0, "y":97.5 } } } },
		{ "extend":"ShadowCaster", "components": { "Transform": { "position": { "x":92.0, "y":97.5 } } } },
		{ "extend":"ShadowCaster", "components": { "Transform": { "position": { "x":97.0, "y":97.5 } } } },
		{ "extend":"ShadowCaster", "components": { "Transform": { "position": { "x":102.0, "y":97.5 } } } },

		// ShadowCaster column
		{ "extend":"ShadowCaster", "components": { "Transform": { "position": { "x":7.0, "y":102.5 } } } },
		{ "extend":"ShadowCaster", "components": { "Transform": { "position": { "x":12.0, "y":102.5 } } } },
		{ "extend":"ShadowCaster", "components": { "Transform": { "position": { "x":17.0, "y":102.5 } } } },
		{ "extend":"ShadowCaster", "components": { "Transform": { "position": { "x":22.0, "y":102.5 } } } },
		{ "extend":"ShadowCaster", "components": { "Transform": { "position": { "x":27.0, "y":102.5 } } } },
		{ "extend":"ShadowCaster", "components": { "Transform": { "position": { "x":32.0, "y":102.5 } } } },
		{ "extend":"ShadowCaster", "components": { "Transform": { "position": { "x":37.0, "y":102.5 } } } },
		{ "extend":"ShadowCaster", "components": { "Transform": { "position": { "x":42.0, "y":102.5 } } } },
		{ "extend":"ShadowCaster", "components": { "Transform": { "position": { "x":47.0, "y":102.5 } } } },
		{ "extend":"ShadowCaster", "components": { "Transform": { "position": { "x":52.0, "y":102.5 } } } },
		{ "extend":"ShadowCaster", "components": { "Transform": { "position": { "x":57.0, "y":102.5 } } } },
		{ "extend":"ShadowCaster", "components": { "Transform": { "position": { "x":62.0, "y":102.5 } } } },
		{ "extend":"ShadowCaster", "components": { "Transform": { "position": { "x":67.0, "y":102.5 } } } },
		{ "extend":"ShadowCaster", "components": { "Transform": { "position": { "x":72.0, "y":102.5 } } } },
		{ "extend":"ShadowCaster", "components": { "Transform": { "position": { "x":77.0, "y":102.5 } } } },
		{ "extend":"ShadowCaster", "components": { "Transform": { "position": { "x":82.0, "y":102.5 } } } },
		{ "extend":"ShadowCaster", "components": { "Transform": { "position": { "x":87.0, "y":102.5 } } } },
		{ "extend":"ShadowCaster", "components": { "Transform": { "position": { "x":92.0, "y":102.5 } } } },
		{ "extend":"ShadowCaster", "components": { "Transform": { "position": { "x":97.0, "y":102.5 } } } },
		{ "extend":"ShadowCaster", "components": { "Transform": { "position": { "x":102.0, "y":102.5 } } } },


		// CHESTERFIELD COLUMN
		{ "extend": "Chesterfield", "components": { "Transform": { "position": { "x":0.0, "y":0.0 } } } },
		{ "extend": "Chesterfield", "components": { "Transform": { "position": { "x":0.0, "y":0.0 } } } },
		{ "extend": "Chesterfield", "components": { "Transform": { "position": { "x":0.0, "y":0.0 } } } },
		{ "extend": "Chesterfield", "components": { "Transform": { "position": { "x":0.0, "y":0.0 } } } },
		{ "extend": "Chesterfield", "components": { "Transform": { "position": { "x":0.0, "y":0.0 } } } },
		{ "extend": "Chesterfield", "components": { "Transform": { "position": { "x":0.0, "y":0.0 } } } },
		{ "extend": "Chesterfield", "components": { "Transform": { "position": { "x":0.0, "y":0.0 } } } },
		{ "extend": "Chesterfield", "components": { "Transform": { "position": { "x":0.0, "y":0.0 } } } },
		{ "extend": "Chesterfield", "components": { "Transform": { "position": { "x":0.0, "y":0.0 } } } },
		{ "extend": "Chesterfield", "components": { "Transform": { "position": { "x":0.0, "y":0.0 } } } },

		// CHESTERFIELD COLUMN
		{ "extend": "Chesterfield", "components": { "Transform": { "position": { "x":10.0, "y":10.0 } } } },
		{ "extend": "Chesterfield", "components": { "Transform": { "position": { "x":10.0, "y":20.0 } } } },
		{ "extend": "Chesterfield", "components": { "Transform": { "position": { "x":10.0, "y":30.0 } } } },
		{ "extend": "Chesterfield", "components": { "Transform": { "position": { "x":10.0, "y":40.0 } } } },
		{ "extend": "Chesterfield", "components": { "Transform": { "position": { "x":10.0, "y":50.0 } } } },
		{ "extend": "Chesterfield", "components": { "Transform": { "position": { "x":10.0, "y":60.0 } } } },
		{ "extend": "Chesterfield", "components": { "Transform": { "position": { "x":10.0, "y":70.0 } } } },
		{ "extend": "Chesterfield", "components": { "Transform": { "position": { "x":10.0, "y":80.0 } } } },
		{ "extend": "Chesterfield", "components": { "Transform": { "position": { "x":10.0, "y":90.0 } } } },
		{ "extend": "Chesterfield", "components": { "Transform": { "position": { "x":10.0, "y":100.0 } } } },

		// CHESTERFIELD COLUMN
		{ "extend": "Chesterfield", "components": { "Transform": { "position": { "x":20.0, "y":10.0 } } } },
		{ "extend": "Chesterfield", "components": { "Transform": { "position": { "x":20.0, "y":20.0 } } } },
		{ "extend": "Chesterfield", "components": { "Transform": { "position": { "x":20.0, "y":30.0 } } } },
		{ "extend": "Chesterfield", "components": { "Transform": { "position": { "x":20.0, "y":40.0 } } } },
		{ "extend": "Chesterfield", "components": { "Transform": { "position": { "x":20.0, "y":50.0 } } } },
		{ "extend": "Chesterfield", "components": { "Transform": { "position": { "x":20.0, "y":60.0 } } } },
		{ "extend": "Chesterfield", "components": { "Transform": { "position": { "x":20.0, "y":70.0 } } } },
		{ "extend": "Chesterfield", "components": { "Transform": { "position": { "x":20.0, "y":80.0 } } } },
		{ "extend": "Chesterfield", "components": { "Transform": { "position": { "x":20.0, "y":90.0 } } } },
		{ "extend": "Chesterfield", "components": { "Transform": { "position": { "x":20.0, "y":100.0 } } } },

		// CHESTERFIELD COLUMN
		{ "extend": "Chesterfield", "components": { "Transform": { "position": { "x":30.0, "y":10.0 } } } },
		{ "extend": "Chesterfield", "components": { "Transform": { "position": { "x":30.0, "y":20.0 } } } },
		{ "extend": "Chesterfield", "components": { "Transform": { "position": { "x":30.0, "y":30.0 } } } },
		{ "extend": "Chesterfield", "components": { "Transform": { "position": { "x":30.0, "y":40.0 } } } },
		{ "extend": "Chesterfield", "components": { "Transform": { "position": { "x":30.0, "y":50.0 } } } },
		{ "extend": "Chesterfield", "components": { "Transform": { "position": { "x":30.0, "y":60.0 } } } },
		{ "extend": "Chesterfield", "components": { "Transform": { "position": { "x":30.0, "y":70.0 } } } },
		{ "extend": "Chesterfield", "components": { "Transform": { "position": { "x":30.0, "y":80.0 } } } },
		{ "extend": "Chesterfield", "components": { "Transform": { "position": { "x":30.0, "y":90.0 } } } },
		{ "extend": "Chesterfield", "components": { "Transform": { "position": { "x":30.0, "y":100.0 } } } },

		// CHESTERFIELD COLUMN
		{ "extend": "Chesterfield", "components": { "Transform": { "position": { "x":40.0, "y":10.0 } } } },
		{ "extend": "Chesterfield", "components": { "Transform": { "position": { "x":40.0, "y":20.0 } } } },
		{ "extend": "Chesterfield", "components": { "Transform": { "position": { "x":40.0, "y":30.0 } } } },
		{ "extend": "Chesterfield", "components": { "Transform": { "position": { "x":40.0, "y":40.0 } } } },
		{ "extend": "Chesterfield", "components": { "Transform": { "position": { "x":40.0, "y":50.0 } } } },
		{ "extend": "Chesterfield", "components": { "Transform": { "position": { "x":40.0, "y":60.0 } } } },
		{ "extend": "Chesterfield", "components": { "Transform": { "position": { "x":40.0, "y":70.0 } } } },
		{ "extend": "Chesterfield", "components": { "Transform": { "position": { "x":40.0, "y":80.0 } } } },
		{ "extend": "Chesterfield", "components": { "Transform": { "position": { "x":40.0, "y":90.0 } } } },
		{ "extend": "Chesterfield", "components": { "Transform": { "position": { "x":40.0, "y":100.0 } } } },

		// CHESTERFIELD COLUMN
		{ "extend": "Chesterfield", "components": { "Transform": { "position": { "x":50.0, "y":10.0 } } } },
		{ "extend": "Chesterfield", "components": { "Transform": { "position": { "x":50.0, "y":20.0 } } } },
		{ "extend": "Chesterfield", "components": { "Transform": { "position": { "x":50.0, "y":30.0 } } } },
		{ "extend": "Chesterfield", "components": { "Transform": { "position": { "x":50.0, "y":40.0 } } } },
		{ "extend": "Chesterfield", "components": { "Transform": { "position": { "x":50.0, "y":50.0 } } } },
		{ "extend": "Chesterfield", "components": { "Transform": { "position": { "x":50.0, "y":60.0 } } } },
		{ "extend": "Chesterfield", "components": { "Transform": { "position": { "x":50.0, "y":70.0 } } } },
		{ "extend": "Chesterfield", "components": { "Transform": { "position": { "x":50.0, "y":80.0 } } } },
		{ "extend": "Chesterfield", "components": { "Transform": { "position": { "x":50.0, "y":90.0 } } } },
		{ "extend": "Chesterfield", "components": { "Transform": { "position": { "x":50.0, "y":100.0 } } } },

		// CHESTERFIELD COLUMN
		{ "extend": "Chesterfield", "components": { "Transform": { "position": { "x":60.0, "y":10.0 } } } },
		{ "extend": "Chesterfield", "components": { "Transform": { "position": { "x":60.0, "y":20.0 } } } },
		{ "extend": "Chesterfield", "components": { "Transform": { "position": { "x":60.0, "y":30.0 } } } },
		{ "extend": "Chesterfield", "components": { "Transform": { "position": { "x":60.0, "y":40.0 } } } },
		{ "extend": "Chesterfield", "components": { "Transform": { "position": { "x":60.0, "y":50.0 } } } },
		{ "extend": "Chesterfield", "components": { "Transform": { "position": { "x":60.0, "y":60.0 } } } },
		{ "extend": "Chesterfield", "components": { "Transform": { "position": { "x":60.0, "y":70.0 } } } },
		{ "extend": "Chesterfield", "components": { "Transform": { "position": { "x":60.0, "y":80.0 } } } },
		{ "extend": "Chesterfield", "components": { "Transform": { "position": { "x":60.0, "y":90.0 } } } },
		{ "extend": "Chesterfield", "components": { "Transform": { "position": { "x":60.0, "y":100.0 } } } },

		// CHESTERFIELD COLUMN
		{ "extend": "Chesterfield", "components": { "Transform": { "position": { "x":70.0, "y":10.0 } } } },
		{ "extend": "Chesterfield", "components": { "Transform": { "position": { "x":70.0, "y":20.0 } } } },
		{ "extend": "Chesterfield", "components": { "Transform": { "position": { "x":70.0, "y":30.0 } } } },
		{ "extend": "Chesterfield", "components": { "Transform": { "position": { "x":70.0, "y":40.0 } } } },
		{ "extend": "Chesterfield", "components": { "Transform": { "position": { "x":70.0, "y":50.0 } } } },
		{ "extend": "Chesterfield", "components": { "Transform": { "position": { "x":70.0, "y":60.0 } } } },
		{ "extend": "Chesterfield", "components": { "Transform": { "position": { "x":70.0, "y":70.0 } } } },
		{ "extend": "Chesterfield", "components": { "Transform": { "position": { "x":70.0, "y":80.0 } } } },
		{ "extend": "Chesterfield", "components": { "Transform": { "position": { "x":70.0, "y":90.0 } } } },
		{ "extend": "Chesterfield", "components": { "Transform": { "position": { "x":70.0, "y":100.0 } } } },

		// CHESTERFIELD COLUMN
		{ "extend": "Chesterfield", "components": { "Transform": { "position": { "x":80.0, "y":10.0 } } } },
		{ "extend": "Chesterfield", "components": { "Transform": { "position": { "x":80.0, "y":20.0 } } } },
		{ "extend": "Chesterfield", "components": { "Transform": { "position": { "x":80.0, "y":30.0 } } } },
		{ "extend": "Chesterfield", "components": { "Transform": { "position": { "x":80.0, "y":40.0 } } } },
		{ "extend": "Chesterfield", "components": { "Transform": { "position": { "x":80.0, "y":50.0 } } } },
		{ "extend": "Chesterfield", "components": { "Transform": { "position": { "x":80.0, "y":60.0 } } } },
		{ "extend": "Chesterfield", "components": { "Transform": { "position": { "x":80.0, "y":70.0 } } } },
		{ "extend": "Chesterfield", "components": { "Transform": { "position": { "x":80.0, "y":80.0 } } } },
		{ "extend": "Chesterfield", "components": { "Transform": { "position": { "x":80.0, "y":90.0 } } } },
		{ "extend": "Chesterfield", "components": { "Transform": { "position": { "x":80.0, "y":100.0 } } } },

		// CHESTERFIELD COLUMN
		{ "extend": "Chesterfield", "components": { "Transform": { "position": { "x":90.0, "y":10.0 } } } },
		{ "extend": "Chesterfield", "components": { "Transform": { "position": { "x":90.0, "y":20.0 } } } },
		{ "extend": "Chesterfield", "components": { "Transform": { "position": { "x":90.0, "y":30.0 } } } },
		{ "extend": "Chesterfield", "components": { "Transform": { "position": { "x":90.0, "y":40.0 } } } },
		{ "extend": "Chesterfield", "components": { "Transform": { "position": { "x":90.0, "y":50.0 } } } },
		{ "extend": "Chesterfield", "components": { "Transform": { "position": { "x":90.0, "y":60.0 } } } },
		{ "extend": "Chesterfield", "components": { "Transform": { "position": { "x":90.0, "y":70.0 } } } },
		{ "extend": "Chesterfield", "components": { "Transform": { "position": { "x":90.0, "y":80.0 } } } },
		{ "extend": "Chesterfield", "components": { "Transform": { "position": { "x":90.0, "y":90.0 } } } },
		{ "extend": "Chesterfield", "components": { "Transform": { "position": { "x":90.0, "y":100.0 } } } },

		// CHESTERFIELD COLUMN
		{ "extend": "Chesterfield", "components": { "Transform": { "position": { "x":100.0, "y":10.0 } } } },
		{ "extend": "Chesterfield", "components": { "Transform": { "position": { "x":100.0, "y":20.0 } } } },
		{ "extend": "Chesterfield", "components": { "Transform": { "position": { "x":100.0, "y":30.0 } } } },
		{ "extend": "Chesterfield", "components": { "Transform": { "position": { "x":100.0, "y":40.0 } } } },
		{ "extend": "Chesterfield", "components": { "Transform": { "position": { "x":100.0, "y":50.0 } } } },
		{ "extend": "Chesterfield", "components": { "Transform": { "position": { "x":100.0, "y":60.0 } } } },
		{ "extend": "Chesterfield", "components": { "Transform": { "position": { "x":100.0, "y":70.0 } } } },
		{ "extend": "Chesterfield", "components": { "Transform": { "position": { "x":100.0, "y":80.0 } } } },
		{ "extend": "Chesterfield", "components": { "Transform": { "position": { "x":100.0, "y":90.0 } } } },
		{ "extend": "Chesterfield", "components": { "Transform": { "position": { "x":100.0, "y":100.0 } } } },

		// LIGHT COLUMN
		{ "extend": "Light", "components":{ "Transform": { "position":{ "x":10.0, "y":10.0} } } },
		{ "extend": "Light", "components":{ "Transform": { "position":{ "x":10.0, "y":20.0} } } },
		{ "extend": "Light", "components":{ "Transform": { "position":{ "x":10.0, "y":30.0} } } },
		{ "extend": "Light", "components":{ "Transform": { "position":{ "x":10.0, "y":40.0} } } },
		{ "extend": "Light", "components":{ "Transform": { "position":{ "x":10.0, "y":50.0} } } },
		{ "extend": "Light", "components":{ "Transform": { "position":{ "x":10.0, "y":60.0} } } },
		{ "extend": "Light", "components":{ "Transform": { "position":{ "x":10.0, "y":70.0} } } },
		{ "extend": "Light", "components":{ "Transform": { "position":{ "x":10.0, "y":80.0} } } },
		{ "extend": "Light", "components":{ "Transform": { "position":{ "x":10.0, "y":90.0} } } },
		{ "extend": "Light", "components":{ "Transform": { "position":{ "x":10.0, "y":100.0} } } },

		// LIGHT COLUMN
		{ "extend": "Light", "components":{ "Transform": { "position":{ "x":20.0, "y":10.0} } } },
		{ "extend": "Light", "components":{ "Transform": { "position":{ "x":20.0, "y":20.0} } } },
		{ "extend": "Light", "components":{ "Transform": { "position":{ "x":20.0, "y":30.0} } } },
		{ "extend": "Light", "components":{ "Transform": { "position":{ "x":20.0, "y":40.0} } } },
		{ "extend": "Light", "components":{ "Transform": { "position":{ "x":20.0, "y":50.0} } } },
		{ "extend": "Light", "components":{ "Transform": { "position":{ "x":20.0, "y":70.0} } } },
		{ "extend": "Light", "components":{ "Transform": { "position":{ "x":20.0, "y":80.0} } } },
		{ "extend": "Light", "components":{ "Transform": { "position":{ "x":20.0, "y":90.0} } } },
		{ "extend": "Light", "components":{ "Transform": { "position":{ "x":20.0, "y":100.0} } } },

		// LIGHT COLUMN
		{ "extend": "Light", "components":{ "Transform": { "position":{ "x":30.0, "y":10.0} } } },
		{ "extend": "Light", "components":{ "Transform": { "position":{ "x":30.0, "y":20.0} } } },
		{ "extend": "Light", "components":{ "Transform": { "position":{ "x":30.0, "y":30.0} } } },
		{ "extend": "Light", "components":{ "Transform": { "position":{ "x":30.0, "y":40.0} } } },
		{ "extend": "Light", "components":{ "Transform": { "position":{ "x":30.0, "y":50.0} } } },
		{ "extend": "Light", "components":{ "Transform": { "position":{ "x":30.0, "y":60.0} } } },
		{ "extend": "Light", "components":{ "Transform": { "position":{ "x":30.0, "y":70.0} } } },
		{ "extend": "Light", "components":{ "Transform": { "position":{ "x":30.0, "y":80.0} } } },
		{ "extend": "Light", "components":{ "Transform": { "position":{ "x":30.0, "y":90.0} } } },
		{ "extend": "Light", "components":{ "Transform": { "position":{ "x":30.0, "y":100.0} } } },

		// LIGHT COLUMN
		{ "extend": "Light", "components":{ "Transform": { "position":{ "x":40.0, "y":10.0} } } },
		{ "extend": "Light", "components":{ "Transform": { "position":{ "x":40.0, "y":20.0} } } },
		{ "extend": "Light", "components":{ "Transform": { "position":{ "x":40.0, "y":30.0} } } },
		{ "extend": "Light", "components":{ "Transform": { "position":{ "x":40.0, "y":40.0} } } },
		{ "extend": "Light", "components":{ "Transform": { "position":{ "x":40.0, "y":50.0} } } },
		{ "extend": "Light", "components":{ "Transform": { "position":{ "x":40.0, "y":60.0} } } },
		{ "extend": "Light", "components":{ "Transform": { "position":{ "x":40.0, "y":70.0} } } },
		{ "extend": "Light", "components":{ "Transform": { "position":{ "x":40.0, "y":80.0} } } },
		{ "extend": "Light", "components":{ "Transform": { "position":{ "x":40.0, "y":90.0} } } },
		{ "extend": "Light", "components":{ "Transform": { "position":{ "x":40.0, "y":100.0} } } },

		// LIGHT COLUMN
		{ "extend": "Light", "components":{ "Transform": { "position":{ "x":50.0, "y":10.0} } } },
		{ "extend": "Light", "components":{ "Transform": { "position":{ "x":50.0, "y":20.0} } } },
		{ "extend": "Light", "components":{ "Transform": { "position":{ "x":50.0, "y":30.0} } } },
		{ "extend": "Light", "components":{ "Transform": { "position":{ "x":50.0, "y":40.0} } } },
		{ "extend": "Light", "components":{ "Transform": { "position":{ "x":50.0, "y":50.0} } } },
		{ "extend": "Light", "components":{ "Transform": { "position":{ "x":50.0, "y":60.0} } } },
		{ "extend": "Light", "components":{ "Transform": { "position":{ "x":50.0, "y":70.0} } } },
		{ "extend": "Light", "components":{ "Transform": { "position":{ "x":50.0, "y":80.0} } } },
		{ "extend": "Light", "components":{ "Transform": { "position":{ "x":50.0, "y":90.0} } } },
		{ "extend": "Light", "components":{ "Transform": { "position":{ "x":50.0, "y":100.0} } } },

		// LIGHT COLUMN
		{ "extend": "Light", "components":{ "Transform": { "position":{ "x":60.0, "y":10.0} } } },
		{ "extend": "Light", "components":{ "Transform": { "position":{ "x":60.0, "y":20.0} } } },
		{ "extend": "Light", "components":{ "Transform": { "position":{ "x":60.0, "y":30.0} } } },
		{ "extend": "Light", "components":{ "Transform": { "position":{ "x":60.0, "y":40.0} } } },
		{ "extend": "Light", "components":{ "Transform": { "position":{ "x":60.0, "y":50.0} } } },
		{ "extend": "Light", "components":{ "Transform": { "position":{ "x":60.0, "y":60.0} } } },
		{ "extend": "Light", "components":{ "Transform": { "position":{ "x":60.0, "y":70.0} } } },
		{ "extend": "Light", "components":{ "Transform": { "position":{ "x":60.0, "y":80.0} } } },
		{ "extend": "Light", "components":{ "Transform": { "position":{ "x":60.0, "y":90.0} } } },
		{ "extend": "Light", "components":{ "Transform": { "position":{ "x":60.0, "y":100.0} } } },

		// LIGHT COLUMN
		{ "extend": "Light", "components":{ "Transform": { "position":{ "x":70.0, "y":10.0} } } },
		{ "extend": "Light", "components":{ "Transform": { "position":{ "x":70.0, "y":20.0} } } },
		{ "extend": "Light", "components":{ "Transform": { "position":{ "x":70.0, "y":30.0} } } },
		{ "extend": "Light", "components":{ "Transform": { "position":{ "x":70.0, "y":40.0} } } },
		{ "extend": "Light", "components":{ "Transform": { "position":{ "x":70.0, "y":50.0} } } },
		{ "extend": "Light", "components":{ "Transform": { "position":{ "x":70.0, "y":60.0} } } },
		{ "extend": "Light", "components":{ "Transform": { "position":{ "x":70.0, "y":70.0} } } },
		{ "extend": "Light", "components":{ "Transform": { "position":{ "x":70.0, "y":80.0} } } },
		{ "extend": "Light", "components":{ "Transform": { "position":{ "x":70.0, "y":90.0} } } },
		{ "extend": "Light", "components":{ "Transform": { "position":{ "x":70.0, "y":100.0} } } },

		// LIGHT COLUMN
		{ "extend": "Light", "components":{ "Transform": { "position":{ "x":80.0, "y":10.0} } } },
		{ "extend": "Light", "components":{ "Transform": { "position":{ "x":80.0, "y":20.0} } } },
		{ "extend": "Light", "components":{ "Transform": { "position":{ "x":80.0, "y":30.0} } } },
		{ "extend": "Light", "components":{ "Transform": { "position":{ "x":80.0, "y":40.0} } } },
		{ "extend": "Light", "components":{ "Transform": { "position":{ "x":80.0, "y":50.0} } } },
		{ "extend": "Light", "components":{ "Transform": { "position":{ "x":80.0, "y":60.0} } } },
		{ "extend": "Light", "components":{ "Transform": { "position":{ "x":80.0, "y":70.0} } } },
		{ "extend": "Light", "components":{ "Transform": { "position":{ "x":80.0, "y":80.0} } } },
		{ "extend": "Light", "components":{ "Transform": { "position":{ "x":80.0, "y":90.0} } } },
		{ "extend": "Light", "components":{ "Transform": { "position":{ "x":80.0, "y":100.0} } } },

		// LIGHT COLUMN
		{ "extend": "Light", "components":{ "Transform": { "position":{ "x":90.0, "y":10.0} } } },
		{ "extend": "Light", "components":{ "Transform": { "position":{ "x":90.0, "y":20.0} } } },
		{ "extend": "Light", "components":{ "Transform": { "position":{ "x":90.0, "y":30.0} } } },
		{ "extend": "Light", "components":{ "Transform": { "position":{ "x":90.0, "y":40.0} } } },
		{ "extend": "Light", "components":{ "Transform": { "position":{ "x":90.0, "y":50.0} } } },
		{ "extend": "Light", "components":{ "Transform": { "position":{ "x":90.0, "y":60.0} } } },
		{ "extend": "Light", "components":{ "Transform": { "position":{ "x":90.0, "y":70.0} } } },
		{ "extend": "Light", "components":{ "Transform": { "position":{ "x":90.0, "y":80.0} } } },
		{ "extend": "Light", "components":{ "Transform": { "position":{ "x":90.0, "y":90.0} } } },
		{ "extend": "Light", "components":{ "Transform": { "position":{ "x":90.0, "y":100.0} } } },

		// LIGHT COLUMN
		{ "extend": "Light", "components":{ "Transform": { "position":{ "x":100.0, "y":10.0} } } },
		{ "extend": "Light", "components":{ "Transform": { "position":{ "x":100.0, "y":20.0} } } },
		{ "extend": "Light", "components":{ "Transform": { "position":{ "x":100.0, "y":30.0} } } },
		{ "extend": "Light", "components":{ "Transform": { "position":{ "x":100.0, "y":40.0} } } },
		{ "extend": "Light", "components":{ "Transform": { "position":{ "x":100.0, "y":50.0} } } },
		{ "extend": "Light", "components":{ "Transform": { "position":{ "x":100.0, "y":60.0} } } },
		{ "extend": "Light", "components":{ "Transform": { "position":{ "x":100.0, "y":70.0} } } },
		{ "extend": "Light", "components":{ "Transform": { "position":{ "x":100.0, "y":80.0} } } },
		{ "extend": "Light", "components":{ "Transform": { "position":{ "x":100.0, "y":90.0} } } },
		{ "extend": "Light", "components":{ "Transform": { "position":{ "x":100.0, "y":100.0} } } }
	]
}
